…
------------------------------------------------------------------------

## Project Gutenberg is cool to download old books. Let’s look at the tible structure of these.

With this code we are going to count how many book per language are
stored in [Project Gutenberg](https://www.gutenberg.org/)

``` r
pacman::p_load(tidyverse)
gutenberg_metadata %>%
  group_by(language) %>%
  count()
```

    ## # A tibble: 103 x 2
    ## # Groups:   language [103]
    ##    language     n
    ##    <chr>    <int>
    ##  1 af           4
    ##  2 ale/en       1
    ##  3 ang/de       1
    ##  4 ang/en       3
    ##  5 ar           1
    ##  6 arp          2
    ##  7 bg           6
    ##  8 bgi/es       1
    ##  9 br           1
    ## 10 ca          28
    ## # ... with 93 more rows
…
``` r
gutenberg_download(30984) -> Sicilia
```

    ## Determining mirror for Project Gutenberg from http://www.gutenberg.org/robot/harvest

    ## Using mirror http://aleph.gutenberg.org

This book needs to be cleansed!

``` r
Sicilia %>% select(text)
```

    ## # A tibble: 16,343 x 1
    ##    text                      
    ##    <chr>                     
    ##  1 "D.r NAPOLEONE COLAJANNI" 
    ##  2 ""                        
    ##  3 "_Deputato al Parlamento_"
    ##  4 ""                        
    ##  5 ""                        
    ##  6 "GLI"                     
    ##  7 ""                        
    ##  8 "AVVENIMENTI DI SICILIA"  
    ##  9 ""                        
    ## 10 "E"                       
    ## # ... with 16,333 more rows
…
